<svg width='200px' height='200px' xmlns="http://www.w3.org/2000/svg" viewBox="0 0 100 100" preserveAspectRatio="xMidYMid" class="uil-balls"><rect x="0" y="0" width="100" height="100" fill="none" class="bk"></rect><g transform="rotate(0 50 50)">
  <circle r="6" cx="20" cy="50">
    <animateTransform attributeName="transform" type="translate" begin="0s" repeatCount="indefinite" dur="1s" values="0 0;29.999999999999996 -30" keyTimes="0;1"/>
    <animate attributeName="fill" dur="1s" begin="0s" repeatCount="indefinite"  keyTimes="0;1" values="#53a1e5;#0f7cd9"/>
  </circle>
</g><g transform="rotate(90 50 50)">
  <circle r="6" cx="20" cy="50">
    <animateTransform attributeName="transform" type="translate" begin="0s" repeatCount="indefinite" dur="1s" values="0 0;29.999999999999996 -30" keyTimes="0;1"/>
    <animate attributeName="fill" dur="1s" begin="0s" repeatCount="indefinite"  keyTimes="0;1" values="#0f7cd9;#015197"/>
  </circle>
</g><g transform="rotate(180 50 50)">
  <circle r="6" cx="20" cy="50">
    <animateTransform attributeName="transform" type="translate" begin="0s" repeatCount="indefinite" dur="1s" values="0 0;29.999999999999996 -30" keyTimes="0;1"/>
    <animate attributeName="fill" dur="1s" begin="0s" repeatCount="indefinite"  keyTimes="0;1" values="#015197;#293141"/>
  </circle>
</g><g transform="rotate(270 50 50)">
  <circle r="6" cx="20" cy="50">
    <animateTransform attributeName="transform" type="translate" begin="0s" repeatCount="indefinite" dur="1s" values="0 0;29.999999999999996 -30" keyTimes="0;1"/>
    <animate attributeName="fill" dur="1s" begin="0s" repeatCount="indefinite"  keyTimes="0;1" values="#293141;#53a1e5"/>
  </circle>
</g></svg>